[
  {
    "name": "Футбольный мяч Adidas Tiro PRO OMB",
    "price": "999UAH",
    "src": "https://4football.com.ua/images/.t/_prod/.h185_1600671255_FS0373.jpg",
    "art": "#1221231245",
    "color": "white/teal"
  },
  {
    "name": "Футбольный мяч Adidas Finale UCL PRO 20/21 OMB",
    "price": "2999UAH",
    "src": "https://4football.com.ua/images/.t/_prod/.h185_1584617492_FH7350(1).jpg",
    "art": "#3764762436",
    "color": "white/grey/yellow"
  },
  {
    "name": "Мяч ЕВРО 2020 Adidas Uniforia OMB",
    "price": "2399UAH",
    "src": "https://4football.com.ua/images/.t/_prod/.h185_1584619287_FJ6733(1).jpg",
    "art": "#6346476437",
    "color": "grey"
  },
  {
    "name": "Футбольный мяч Adidas Finale ISTANBUL",
    "price": "1799UAH",
    "src": "https://4football.com.ua/images/.t/_prod/.h185_1584702984_FH7377.jpg",
    "art": "#3647482364",
    "color": "red"
  },
  {
    "name": "Коллекционный мяч ЕВРО 2012 Украина",
    "price": "3899UAH",
    "src": "https://4football.com.ua/images/.t/_prod/.h185_1588169282_tango-12-omb.jpg",
    "art": "#b231b321h2",
    "color": "white/black"
  },
  {
    "name": "Футбольный мяч Nike Merlin II 19/20",
    "price": "2399UAH",
    "src": "https://4football.com.ua/images/.t/_prod/.h185_1586514558_SC3635-100-002.jpg",
    "art": "#bc217621B6",
    "color": "white/blue"
  },
  {
    "name": "Футбольный мяч Nike Premier League Strike №5",
    "price": "1999UAH",
    "src": "https://4football.com.ua/images/.t/_prod/.h185_1601399503_CQ7150-100(1).jpg",
    "art": "#m212N12LL2",
    "color": "white/black/red"
  },
  {
    "name": "Мяч для футзала Select Futsal Super Dream FIFA",
    "price": "2199UAH",
    "src": "https://4football.com.ua/images/.t/_prod/.h185_1584623237_385344(1).jpg",
    "art": "#mn2nxjns9s",
    "color": "orange"
  },
  {
    "name": "Футбольный мяч SELECT Delta IMS 0855846009",
    "price": "1959UAH",
    "src": "https://4football.com.ua/images/.t/_prod/.h185_1584640331_0855846009.jpg",
    "art": "#bnzGG62721",
    "color": "grey"
  },
  {
    "name": "Футбольный мяч SELECT Flash Turf IMS",
    "price": "2195UAH",
    "src": "https://4football.com.ua/images/.t/_prod/.h185_1584640936_0575046003(1).jpg",
    "art": "#Qwqy5546NZ",
    "color": "red"
  }
]